<?xml version="1.0" encoding="UTF-8"?>
<svg width="32px" height="29px" viewBox="0 0 32 29" version="1.1" xmlns="http://www.w3.org/2000/svg" xmlns:xlink="http://www.w3.org/1999/xlink">
    <!-- Generator: Sketch 49 (51002) - http://www.bohemiancoding.com/sketch -->
    <title>Page 1</title>
    <desc>Created with Sketch.</desc>
    <defs></defs>
    <g id="Referral" stroke="none" stroke-width="1" fill="none" fill-rule="evenodd" stroke-linecap="round">
        <g id="Referrals" transform="translate(-939.000000, -427.000000)" stroke="#2DA5F1">
            <g id="Group" transform="translate(608.000000, 423.000000)">
                <g id="Page-1" transform="translate(332.000000, 5.000000)">
                    <g>
                        <path d="M11.9428065,3.773925 L28.2879677,3.773925 C29.393129,3.773925 30.2089355,4.87803214 29.9524839,6.02746071 L27.867,15.3954964 C27.683129,16.2199607 26.9950645,16.801425 26.2024839,16.801425 L11.1666774,16.801425 L5.31764516,-0.000289285714 L-9.67741935e-05,-0.000289285714" id="Stroke-1" stroke-width="2"></path>
                        <polyline id="Stroke-3" stroke-width="2" points="9.53525806 12.1746857 13.0152581 22.2167571 26.2849355 22.2167571"></polyline>
                        <path d="M15.386129,24.1745464 C15.386129,25.2391179 14.5190323,26.1031179 13.4506452,26.1031179 C12.3822581,26.1031179 11.5151613,25.2391179 11.5151613,24.1745464 C11.5151613,23.109975 12.3822581,22.245975 13.4506452,22.245975 C14.5190323,22.245975 15.386129,23.109975 15.386129,24.1745464 Z" id="Stroke-5" stroke-width="2"></path>
                        <path d="M28.0844516,24.1745464 C28.0844516,25.2391179 27.2173548,26.1031179 26.1489677,26.1031179 C25.0805806,26.1031179 24.2134839,25.2391179 24.2134839,24.1745464 C24.2134839,23.109975 25.0805806,22.245975 26.1489677,22.245975 C27.2173548,22.245975 28.0844516,23.109975 28.0844516,24.1745464 Z" id="Stroke-7" stroke-width="2"></path>
                        <path d="M22.5445161,7.88959286 L22.5445161,12.6811286" id="Stroke-9" stroke-width="2"></path>
                        <path d="M16.3090645,7.88959286 L16.3090645,12.6811286" id="Stroke-11" stroke-width="2"></path>
                    </g>
                </g>
            </g>
        </g>
    </g>
</svg>