<?xml version="1.0" encoding="utf-8"?>
<!-- Generator: Adobe Illustrator 16.0.0, SVG Export Plug-In . SVG Version: 6.00 Build 0)  -->
<!DOCTYPE svg PUBLIC "-//W3C//DTD SVG 1.1//EN" "http://www.w3.org/Graphics/SVG/1.1/DTD/svg11.dtd">
<svg version="1.1" id="Vector_Smart_Object_xA0_Image_1_"
	 xmlns="http://www.w3.org/2000/svg" xmlns:xlink="http://www.w3.org/1999/xlink" x="0px" y="0px" width="21px" height="32px"
	 viewBox="0 0 21 32" enable-background="new 0 0 21 32" xml:space="preserve">
<image overflow="visible" width="21" height="32" id="Vector_Smart_Object_xA0_Image" xlink:href="D2DBAA13.png" >
</image>
</svg>
